module gitlab.com/Arcaik/gotify-alertmanager

go 1.15

require (
	github.com/gin-gonic/gin v1.6.3
	github.com/go-playground/validator/v10 v10.3.0 // indirect
	github.com/golang/protobuf v1.4.2 // indirect
	github.com/gotify/plugin-api v1.0.0
	github.com/json-iterator/go v1.1.10 // indirect
	github.com/kr/pretty v0.1.0 // indirect
	github.com/stretchr/testify v1.4.0
	golang.org/x/sys v0.0.0-20201005172224-997123666555 // indirect
	google.golang.org/protobuf v1.25.0 // indirect
	gopkg.in/check.v1 v1.0.0-20180628173108-788fd7840127 // indirect
	gopkg.in/yaml.v2 v2.3.0 // indirect
)
